Figura 3
…
Figura 3A: Filogenia

Obtener el numero de genomas por Class:

genomes_per_class <- db_genome %>%
  distinct(genomeID, class) %>%  # eliminar duplicados por genomeID y class
  group_by(class) %>%
  summarise(n_genomes = n()) %>%
  arrange(desc(n_genomes))

genomes_per_class

# A tibble: 60 × 2
   class                 n_genomes
   <chr>                     <int>
 1 Gammaproteobacteria       27249
 2 Bacilli                   25644
 3 Actinobacteria             9859
 4 Betaproteobacteria         3998
 5 Epsilonproteobacteria      2693
 6 Alphaproteobacteria        2001
 7 Clostridia                 1621
 8 Bacteroidia                 570
 9 Spirochaetia                501
10 Flavobacteriia              375
# ℹ 50 more rows
…
